<?xml version="1.0" encoding="iso-8859-1"?>
<!-- Generator: Adobe Illustrator 16.0.0, SVG Export Plug-In . SVG Version: 6.00 Build 0)  -->
<!DOCTYPE svg PUBLIC "-//W3C//DTD SVG 1.1//EN" "http://www.w3.org/Graphics/SVG/1.1/DTD/svg11.dtd">
<svg xmlns="http://www.w3.org/2000/svg" xmlns:xlink="http://www.w3.org/1999/xlink" version="1.1" id="Capa_1" x="0px" y="0px" width="512px" height="512px" viewBox="0 0 533.333 533.333" style="enable-background:new 0 0 533.333 533.333;" xml:space="preserve">
<g>
	<path d="M31.53,0l42.783,480.016l192.061,53.317l192.565-53.397L501.804,0H31.53z M408.662,156.994h-0.203H183.38l5.365,60.287   h214.566l-16.166,180.734l-120.489,33.425l-0.12,0.04h-0.081h-0.063l-120.61-33.465l-8.245-92.454h59.112l4.191,46.996   l65.553,17.664l0.145-0.04l65.59-17.705l6.808-76.328H134.905l-15.882-178.02h294.903L408.662,156.994z" fill="#FFFFFF"/>
</g>
</svg>
